…
Given that this data is tidy, the pivot_longer and pivot_wider fuctions will be used in another section. The object of using those functions, however, is to organize data so that each observation has it's own row and each variable has it's own column. I chose to do a full_join of the data because I imported a single dataset and wanted to ensure I kept all components, therefore, no results were lost. A few additional columns were made for gathering summary statistics as well as to create a categorical variable. 


```r
FULL_New%>% filter(between(Date.Rank,25,50))
```

```
## # A tibble: 26 x 10
##    Date.Rank Sum.of.COVID.Co~ Sum.of.Sars.Con~ Sum.of.COVID.De~ Sum.of.Sars.Dea~
##        <dbl>            <dbl>            <dbl>            <dbl>            <dbl>
##  1        25            49053             3233             1383              144
##  2        26            50580             3298             1526              154
##  3        27            51857             3357             1669              159
##  4        28            71429             3448             1775              165
##  5        29            73332             3595             1873              182
##  6        30            75204             4090             2009              182
##  7        31            75748             4180             2129              217
##  8        32            76769             4561             2247              229
##  9        33            77794             4713             2359              251
## 10        34            78811             4921             2463              263
## # ... with 16 more rows, and 5 more variables: COVID.New.Cases <dbl>,
## #   Sars.New.Cases <dbl>, COVID.New.Deaths <dbl>, Sars.New.Deaths <dbl>,
## #   Week.Number <chr>
```

```r
FULL_New%>% select(Sum.of.COVID.Confirmed,Sum.of.Sars.Confirmed, everything())%>%
  arrange(desc(Sum.of.COVID.Confirmed))
```

```
## # A tibble: 70 x 10
##    Sum.of.COVID.Co~ Sum.of.Sars.Con~ Date.Rank Sum.of.COVID.De~ Sum.of.Sars.Dea~
##               <dbl>            <dbl>     <dbl>            <dbl>            <dbl>
##  1           132758             7624        53             4955              610
##  2           125260             7569        52             4613              597
##  3           118319             7467        51             4292              586
##  4           113702             7445        50             4012              572
##  5           109577             7404        49             3809              551
##  6           105592             7280        48             3584              525
##  7           101927             7178        47             3486              513
##  8            98192             7074        46             3380              505
##  9            95324             6923        45             3280              494
## 10            93090             6800        44             3198              477
## # ... with 60 more rows, and 5 more variables: COVID.New.Cases <dbl>,
## #   Sars.New.Cases <dbl>, COVID.New.Deaths <dbl>, Sars.New.Deaths <dbl>,
## #   Week.Number <chr>
```
…
